[[grammar (info)] Line 61: 
Production Rules
(rule precedences determined from %prec or 1st terminal between parentheses):
1: input ->  <empty>
2: input ->  input line
3: line ('\x0a') ->  '\x0a'
4: line ('\x0a') ->  exp '\x0a'
5: exp (NUM) ->  NUM
6: exp ('+') ->  exp exp '+'
7: exp ('-') ->  exp exp '-'
8: exp ('*') ->  exp exp '*'
9: exp ('/') ->  exp exp '/'
10: exp ('^') ->  exp exp '^'
11: exp ('n') ->  exp 'n'
12: input_$ ->  input

[[grammar (info)] 
Symbolic Terminal tokens:
       error
       EOF
   257: NUM
    10: '\x0a'
    43: '+'
    45: '-'
    42: '*'
    47: '/'
    94: '^'
   110: 'n'

[[grammar (info)] 
Grammar States: 
[[grammar (info)] State 0:
12: input_$ ->  . input 
  0:   On input to state 1
  Reduce by 1: input ->  . 


State 1:
12: input_$ -> input  . 
2: input -> input  . line 
  0:   On line to state 2
  1:   On '\x0a' to state 3
  2:   On exp to state 4
  3:   On NUM to state 5


State 2:
2: input -> input line  . 
  Reduce by 2: input -> input line  . 


State 3:
3: line -> '\x0a'  . 
  Reduce by 3: line -> '\x0a'  . 


State 4:
4: line -> exp  . '\x0a' 
6: exp -> exp  . exp '+' 
7: exp -> exp  . exp '-' 
8: exp -> exp  . exp '*' 
9: exp -> exp  . exp '/' 
10: exp -> exp  . exp '^' 
11: exp -> exp  . 'n' 
  0:   On '\x0a' to state 6
  1:   On exp to state 7
  2:   On 'n' to state 8
  3:   On NUM to state 5


State 5:
5: exp -> NUM  . 
  Reduce by 5: exp -> NUM  . 


State 6:
4: line -> exp '\x0a'  . 
  Reduce by 4: line -> exp '\x0a'  . 


State 7:
6: exp -> exp exp  . '+' 
7: exp -> exp exp  . '-' 
8: exp -> exp exp  . '*' 
9: exp -> exp exp  . '/' 
10: exp -> exp exp  . '^' 
6: exp -> exp  . exp '+' 
7: exp -> exp  . exp '-' 
8: exp -> exp  . exp '*' 
9: exp -> exp  . exp '/' 
10: exp -> exp  . exp '^' 
11: exp -> exp  . 'n' 
  0:   On '+' to state 9
  1:   On '-' to state 10
  2:   On '*' to state 11
  3:   On '/' to state 12
  4:   On '^' to state 13
  5:   On exp to state 7
  6:   On 'n' to state 8
  7:   On NUM to state 5


State 8:
11: exp -> exp 'n'  . 
  Reduce by 11: exp -> exp 'n'  . 


State 9:
6: exp -> exp exp '+'  . 
  Reduce by 6: exp -> exp exp '+'  . 


State 10:
7: exp -> exp exp '-'  . 
  Reduce by 7: exp -> exp exp '-'  . 


State 11:
8: exp -> exp exp '*'  . 
  Reduce by 8: exp -> exp exp '*'  . 


State 12:
9: exp -> exp exp '/'  . 
  Reduce by 9: exp -> exp exp '/'  . 


State 13:
10: exp -> exp exp '^'  . 
  Reduce by 10: exp -> exp exp '^'  . 



